{
  "name": "the_mandalorian",
  "version": "1.0.0",
  "description": "Bootstrap / Coursera",
  "main": "index.html",
  "scripts": {
    "dev": "lite-server",
    "start": "concurrently \"npm run watch:scss\" \"npm run dev \"",
    "test": "echo \"Error: no test specified\" && exit 1",
    "scss": "node-sass -o css/ css/",
    "watch:scss": "onchange 'css/*.scss' -- npm run scss",
    "clean": "rimraf dist",
    "imagemin": "imagemin images/* --out-dir dist/images",
    "usemin": "usemin index.html -d dist --htmlmin -o dist/index.html && usemin about.html -d dist --htmlmin -o dist/about.html && usemin contacto.html -d dist --htmlmin -o dist/contacto.html && usemin precios.html -d dist --htmlmin -o dist/precios.html && usemin terminos.html -d dist --htmlmin -o dist/terminos.html"
  },
  "repository": {
    "type": "git",
    "url": "git+https://d3xb0t@bitbucket.org/d3xb0t/the_mandalorian.git"
  },
  "author": "Jose Fernando / d3xb0t@gmail.com",
  "license": "ISC",
  "homepage": "https://bitbucket.org/d3xb0t/the_mandalorian#readme",
  "devDependencies": {
    "copyfiles": "^2.4.0",
    "cssmin": "^0.4.3",
    "htmlmin": "0.0.7",
    "lite-server": "^2.5.4",
    "node-sass": "^4.14.1",
    "onchange": "^7.1.0",
    "rimraf": "^3.0.2",
    "uglifyjs": "^2.4.11",
    "usemin-cli": "^0.6.0"
  },
  "dependencies": {
    "bootstrap": "^4.5.3",
    "concurrently": "^5.3.0",
    "jquery": "^3.5.1",
    "open-iconic": "^1.1.1",
    "popper.js": "^1.16.1"
  }
}
